#/^(.+[-_.])?(vortex[A-Z]).data.microsoft?[-_.]/
#/^(.+[-_.])?1drv?[-_.]/
#/^(.+[-_.])?[a-zA-Z0-9]?[-_.]?akamai[-_.]/
#/^(.+[-_.])?[a-zA-Z0-9][-_.]?akamaiedge[-_.]/
#/^(.+[-_.])?msedge?[-_.]/
#/^(.+[-_.])?rad.msn?[-_.]/
#/^(.+[-_.])?rads.msn?[-_.]/
/^(.+[-_.])?(vortex[a-zA-Z0-9]).data.microsoft?[-_.]/
/^(.+[-_.])?activity.windows?[-_.]/
/^(.+[-_.])?adnxs?[-_.]/
/^(.+[-_.])?assets.msn.com.edgekey?[-_.]/
/^(.+[-_.])?atdmt?[-_.]/
/^(.+[-_.])?bing[-_.](com|net|org|io|eu|au|uk)?.[a-zA-Z]-[a-zA-Z0-9]*.[a-zA-Z]-msedge[-_.]/
/^(.+[-_.])?data.microsoft?[-_.]/
/^(.+[-_.])?datamart.windows?[-_.]/
/^(.+[-_.])?dual-[a-zA-Z]-[0-9]*.[a-zA-Z]?[-]?msedge?[-_.]/
/^(.+[-_.])?dus.llnw?[-_.]/
/^(.+[-_.])?feedback.windows?[-_.]/
/^(.+[-_.])?glbdns?[-_.]/
/^(.+[-_.])?lon.llnw?[-_.]/
/^(.+[-_.])?msn?[-_.]/
/^(.+[-_.])?notify.windows?[-_.]/
/^(.+[-_.])?serving-sys?[-_.]/
/^(.+[-_.])?stn.llnw?[-_.]/
/^(.+[-_.])?vo.msecnd?[-_.]/
/^(.+[-_.])?vortex.data.microsoft?[-_.]/
/^(.+[-_.])?watson.data?[-_.]/
/^(.+[-_.])?watson.live?[-_.]/
/^(.+[-_.])?watson.microsoft?[-_.]/
/^(.+[-_.])?win.settings?(.+[-_.])?/
/^(.+[-_.])?windowsupdate?[-_.]/
/^(.+[-_.])?wns.windows?[-_.]/
